<svg xmlns="http://www.w3.org/2000/svg" fill="#fff" viewBox="0 0 14 15" id="social-youtube-new" width="100%" height="100%">
  <g fill-rule="evenodd">
    <path d="M12.618 6.491L1.63.147A1.087 1.087 0 0 0 0 1.088v12.688c0 .836.906 1.36 1.63.941l10.988-6.344a1.087 1.087 0 0 0 0-1.882" mask="url(#bfb)"/></g>
</svg>
