<svg xmlns="http://www.w3.org/2000/svg" width="100" height="100" viewBox="0 0 100 100">
    <g fill="#747474" fill-rule="nonzero">
        <path d="M98.305 96.61c-7.476 0-13.56-6.083-13.56-13.56 0-.014-.008-.028-.008-.043 8.397-8.822 13.568-20.743 13.568-33.854C98.305 22.05 76.255 0 49.153 0S0 22.05 0 49.153c0 27.101 22.05 49.152 49.153 49.152 12.44 0 23.81-4.656 32.478-12.305 1.401 7.942 8.337 14 16.674 14 .937 0 1.695-.758 1.695-1.695s-.758-1.695-1.695-1.695zM3.39 49.153C3.39 23.919 23.919 3.39 49.153 3.39c25.233 0 45.762 20.529 45.762 45.763 0 25.233-20.529 45.762-45.762 45.762-25.234 0-45.763-20.529-45.763-45.762z"/>
        <path d="M49.153 6.78C25.788 6.78 6.78 25.788 6.78 49.153c0 23.364 19.008 42.372 42.373 42.372 23.364 0 42.372-19.008 42.372-42.372 0-23.365-19.008-42.373-42.372-42.373zm0 81.356c-21.497 0-38.984-17.487-38.984-38.983 0-21.497 17.487-38.984 38.984-38.984 21.496 0 38.983 17.487 38.983 38.984 0 21.496-17.487 38.983-38.983 38.983z"/>
        <path d="M69.492 37.288c-.563 0-1.112.053-1.655.129l-.039-.07-1.27.326c-.018.005-.033.012-.05.017-.625.164-1.232.373-1.814.634-.025.012-.049.025-.074.035-.57.26-1.117.556-1.634.9-.014.009-.029.017-.04.026-.479.32-.926.681-1.352 1.066-.086.078-.172.154-.257.234-.393.376-.763.778-1.102 1.205-.073.091-.139.186-.21.28-.337.45-.653.916-.924 1.413-.005.01-.012.02-.017.032a11.98 11.98 0 0 0-.698 1.58c-.036.097-.073.193-.107.291-.18.534-.32 1.085-.424 1.65-.018.105-.032.211-.049.318-.088.588-.149 1.185-.149 1.799 0 .613.061 1.21.151 1.8.017.106.029.211.05.318.1.565.243 1.115.423 1.65.032.098.071.193.107.29.198.543.425 1.075.698 1.579.005.01.012.02.017.032.271.497.586.963.922 1.412.07.093.137.188.21.281.34.427.707.83 1.102 1.205.085.08.171.156.257.234.428.385.873.746 1.353 1.066l.04.026c.518.342 1.065.639 1.635.9.025.012.049.025.074.035.581.261 1.187.47 1.812.634.017.005.032.012.05.017l1.27.326.04-.07c.542.076 1.09.129 1.654.129 6.54 0 11.864-5.324 11.864-11.864 0-6.541-5.324-11.865-11.864-11.865zm-1.695 11.865c0 2.676-.583 5.332-1.694 7.757a8.499 8.499 0 0 1-1.21-.657c-.137-.089-.26-.19-.393-.287a8.881 8.881 0 0 1-1.129-.981 8.89 8.89 0 0 1-.79-.956c-.042-.061-.093-.114-.135-.176a8.454 8.454 0 0 1-.695-1.278c-.056-.128-.1-.261-.151-.392a8.31 8.31 0 0 1-.33-1.063c-.036-.145-.073-.291-.1-.44a8.559 8.559 0 0 1-.153-1.527c0-.522.063-1.031.154-1.528.027-.149.065-.294.1-.44a8.31 8.31 0 0 1 .33-1.063c.052-.13.096-.264.152-.391.198-.446.425-.877.694-1.278.041-.061.094-.116.136-.177.239-.339.503-.657.79-.956.108-.113.222-.22.335-.327.25-.235.516-.45.794-.654.13-.095.256-.197.393-.286.385-.25.786-.472 1.21-.658a18.704 18.704 0 0 1 1.692 7.758zm1.695 8.474l-.024-.002a22.047 22.047 0 0 0 1.718-8.472c0-2.912-.601-5.795-1.718-8.473l.024-.002c4.672 0 8.474 3.802 8.474 8.475 0 4.672-3.802 8.474-8.474 8.474zM38.1 56.515c.073-.091.139-.186.21-.28a12 12 0 0 0 .943-1.447c.272-.503.498-1.034.696-1.578.036-.096.073-.191.107-.29.18-.534.322-1.084.424-1.65.018-.106.032-.212.049-.317.088-.589.149-1.187.149-1.8 0-.614-.061-1.212-.15-1.8-.018-.107-.03-.212-.05-.317a11.726 11.726 0 0 0-.424-1.651c-.032-.099-.07-.193-.107-.292a11.616 11.616 0 0 0-.696-1.576l-.02-.037a12.02 12.02 0 0 0-.923-1.412c-.069-.093-.137-.188-.208-.28a11.77 11.77 0 0 0-1.102-1.205c-.084-.08-.17-.156-.257-.234a11.911 11.911 0 0 0-1.353-1.066c-.013-.008-.027-.015-.04-.024a12.024 12.024 0 0 0-1.634-.9l-.077-.037c-.581-.26-1.188-.47-1.813-.634l-.048-.017-1.27-.325-.04.07c-.54-.075-1.09-.128-1.652-.128-6.541 0-11.865 5.324-11.865 11.865 0 6.54 5.324 11.864 11.865 11.864.562 0 1.111-.053 1.654-.129l.039.07 1.271-.326c.017-.005.032-.012.05-.017a11.574 11.574 0 0 0 1.811-.634l.076-.037c.57-.26 1.117-.558 1.634-.9.014-.008.027-.015.04-.024.479-.32.925-.681 1.352-1.066.086-.078.173-.154.257-.234.394-.376.763-.778 1.102-1.205zm-.966-5.835c-.027.149-.065.295-.1.44a8.31 8.31 0 0 1-.33 1.063c-.051.13-.096.264-.151.392a8.454 8.454 0 0 1-.695 1.278c-.041.06-.094.115-.136.176a8.213 8.213 0 0 1-.79.956c-.108.113-.222.22-.335.327a8.17 8.17 0 0 1-.794.654c-.13.095-.256.197-.393.287-.385.249-.786.47-1.21.657a18.704 18.704 0 0 1-1.692-7.757c0-2.677.584-5.333 1.694-7.758.423.186.827.408 1.21.658.137.088.26.19.393.286a8.881 8.881 0 0 1 1.129.981c.285.3.55.619.79.956.042.061.093.114.135.177.27.401.497.832.695 1.278.056.127.1.26.151.391.132.344.244.698.33 1.063.036.146.073.291.1.44.09.497.153 1.006.153 1.528s-.063 1.03-.154 1.527zm-16.795-1.527c0-4.673 3.802-8.475 8.475-8.475l.023.002a22.047 22.047 0 0 0-1.718 8.473c0 2.911.601 5.794 1.718 8.472l-.023.002c-4.673 0-8.475-3.802-8.475-8.474zM37.347 30.507l.326 1.271c.005.017.012.032.017.05.164.625.373 1.231.634 1.811.012.025.025.05.035.075.26.57.558 1.117.9 1.633l.026.041c.32.478.681.926 1.066 1.353.078.086.154.173.234.257.376.394.778.763 1.205 1.102.091.073.186.14.28.21a11.842 11.842 0 0 0 1.445.94 11.98 11.98 0 0 0 1.58.7c.097.035.191.072.29.106.534.18 1.084.32 1.649.424.105.018.212.032.319.049.59.088 1.186.149 1.8.149.613 0 1.21-.061 1.8-.15.106-.018.211-.03.318-.05a11.644 11.644 0 0 0 1.65-.424c.098-.032.193-.07.29-.107a11.761 11.761 0 0 0 1.58-.698c.01-.005.02-.012.033-.017.496-.271.962-.586 1.413-.924.094-.069.188-.137.28-.21a11.77 11.77 0 0 0 1.205-1.101c.08-.085.156-.172.234-.258a11.893 11.893 0 0 0 1.091-1.392c.343-.516.64-1.064.9-1.633.012-.026.026-.05.036-.075.26-.581.47-1.188.634-1.814l.017-.049.325-1.27-.07-.04c.075-.54.128-1.09.128-1.652 0-6.541-5.324-11.865-11.864-11.865-6.541 0-11.865 5.324-11.865 11.865 0 .562.053 1.111.129 1.654l-.07.039zm18.906 2.905c-.089.137-.19.26-.287.391a8.881 8.881 0 0 1-.981 1.13c-.3.284-.619.548-.956.789-.061.042-.114.093-.176.136-.402.27-.833.496-1.278.695-.128.055-.261.1-.392.15a8.31 8.31 0 0 1-1.063.33c-.145.036-.291.074-.44.1a8.405 8.405 0 0 1-1.527.155c-.522 0-1.031-.063-1.528-.154-.149-.027-.294-.065-.44-.1a8.31 8.31 0 0 1-1.063-.33c-.13-.051-.263-.096-.391-.151a8.454 8.454 0 0 1-1.278-.695c-.061-.041-.116-.094-.177-.136a8.388 8.388 0 0 1-.956-.79c-.113-.108-.22-.222-.327-.335a8.425 8.425 0 0 1-.654-.794c-.095-.13-.197-.256-.286-.391a8.422 8.422 0 0 1-.658-1.21c4.85-2.22 10.664-2.22 15.515 0a8.499 8.499 0 0 1-.657 1.21zm-7.1-13.073c4.672 0 8.474 3.802 8.474 8.475l-.003.03c-5.365-2.207-11.58-2.207-16.943 0l-.003-.03c0-4.673 3.802-8.475 8.475-8.475zM60.958 67.798l-.326-1.27c-.005-.018-.012-.033-.017-.048a11.833 11.833 0 0 0-.634-1.814l-.037-.076c-.26-.57-.558-1.117-.9-1.634-.008-.014-.015-.027-.024-.04-.32-.48-.681-.926-1.066-1.353-.078-.087-.154-.173-.234-.258a11.77 11.77 0 0 0-1.205-1.102c-.091-.072-.186-.139-.28-.208a11.881 11.881 0 0 0-1.449-.942 11.805 11.805 0 0 0-1.576-.697c-.096-.036-.193-.073-.291-.107a11.84 11.84 0 0 0-1.651-.424c-.105-.018-.21-.032-.317-.049a12.066 12.066 0 0 0-1.798-.149c-.614 0-1.212.061-1.8.151-.107.017-.212.029-.317.05-.565.103-1.116.243-1.651.423-.099.032-.193.071-.29.107-.544.198-1.075.423-1.578.696l-.037.02c-.495.272-.961.585-1.41.923-.094.07-.189.137-.28.21a11.77 11.77 0 0 0-1.205 1.101c-.08.085-.156.172-.234.258-.385.426-.746.873-1.066 1.353-.009.013-.016.027-.024.04-.342.517-.64 1.065-.9 1.634l-.037.076c-.26.582-.47 1.187-.634 1.812-.005.017-.014.033-.017.05l-.326 1.27.07.04a11.748 11.748 0 0 0-.129 1.65c0 6.541 5.324 11.865 11.865 11.865 6.54 0 11.864-5.324 11.864-11.864 0-.563-.053-1.112-.129-1.655l.07-.039zm-18.905-2.905c.088-.137.19-.26.286-.391a8.881 8.881 0 0 1 .981-1.13c.3-.284.619-.548.956-.789.061-.042.114-.093.177-.136.401-.269.832-.496 1.278-.694.127-.056.26-.1.391-.151a8.31 8.31 0 0 1 1.063-.33c.146-.036.291-.074.44-.1a8.405 8.405 0 0 1 1.528-.155c.522 0 1.03.063 1.527.154.149.027.295.065.44.1a8.31 8.31 0 0 1 1.063.33c.13.052.263.096.392.152.445.198.876.425 1.278.694.06.041.115.094.176.136.339.239.657.505.956.79.113.108.22.222.327.335.234.25.45.516.654.794.095.13.197.256.287.391.249.385.472.787.657 1.21-4.849 2.22-10.664 2.22-15.515 0 .186-.423.408-.827.658-1.21zm7.1 13.073c-4.673 0-8.475-3.802-8.475-8.474l.002-.024a22.047 22.047 0 0 0 8.473 1.718c2.911 0 5.794-.601 8.472-1.718l.002.024c0 4.672-3.802 8.474-8.474 8.474z"/>
    </g>
</svg>
