<svg xmlns="http://www.w3.org/2000/svg" width="346" height="244" viewBox="0 0 346 244">
    <g fill="#000" fill-rule="evenodd">
        <path d="M2.001 111V.914h45.268l18.648 53.389L84.867.914h44.364V111H94.566V46.031L69.451 111h-11.73L33.13 46.031V111H2.002zm247.693-45.719c0 16.142-4.436 28.123-13.31 35.944-8.872 7.82-21.33 11.755-37.371 11.805-16.042 0-28.424-4.01-37.147-12.031-8.672-8.02-13.009-19.826-13.009-35.417V.914h34.816v63.24c0 7.62 1.103 13.108 3.308 16.467 2.206 3.309 6.292 4.963 12.257 4.963 5.966 0 10.001-1.704 12.107-5.113 2.105-3.41 3.183-8.898 3.233-16.468V.914h35.116v64.367zM268.944 111V.914h76.248v26.92H303.91v20.453h33.236v25.717H303.91V111h-34.966zM20.41 168.66c-6.266 0-11.002-1.637-14.209-4.908-3.206-3.272-4.81-7.74-4.81-13.403v-.391c0-5.469 1.742-9.88 5.225-13.232 3.467-3.353 7.788-5.03 12.964-5.03 5.176-.016 9.261 1.148 12.256 3.492 2.995 2.343 4.68 5.883 5.054 10.62H25.195c-.374-3.435-2.124-5.152-5.249-5.152-2.067 0-3.686.79-4.858 2.368-1.172 1.58-1.75 3.874-1.734 6.885v.39c0 2.963.578 5.25 1.734 6.861 1.172 1.595 2.856 2.393 5.054 2.393 3.532 0 5.5-1.75 5.908-5.25h11.304c-.293 4.607-1.97 8.147-5.03 10.62-3.06 2.475-7.031 3.72-11.914 3.736zm31.582-18.36c0 2.978.659 5.298 1.977 6.958 1.319 1.66 3.1 2.49 5.347 2.49 2.246 0 4.028-.83 5.346-2.49 1.319-1.66 1.978-3.98 1.978-6.958v-.39c0-2.98-.66-5.282-1.978-6.91-1.318-1.628-3.108-2.441-5.37-2.441-2.263 0-4.045.805-5.347 2.417-1.302 1.61-1.953 3.922-1.953 6.933v.39zm26.44-.244c0 5.599-1.774 10.099-5.322 13.5-3.548 3.402-8.228 5.103-14.038 5.103-5.827 0-10.441-1.684-13.843-5.054-3.402-3.369-5.103-7.788-5.103-13.256v-.391c-.016-5.436 1.799-9.839 5.445-13.208 3.646-3.37 8.243-5.054 13.794-5.054 5.55 0 10.115 1.612 13.696 4.834 3.58 3.223 5.371 7.593 5.371 13.11v.416zM83.622 168v-35.742h14.697l6.055 17.334 6.152-17.334h14.404V168h-11.254v-21.094L105.52 168h-3.808l-7.984-21.094V168H83.622zm48.476 0v-35.742h14.697l6.055 17.334 6.152-17.334h14.404V168h-11.254v-21.094L153.997 168h-3.808l-7.984-21.094V168h-10.107zm81.02-14.844c0 5.241-1.44 9.131-4.322 11.67-2.88 2.54-6.925 3.817-12.133 3.833-5.209 0-9.229-1.302-12.06-3.906-2.817-2.604-4.224-6.437-4.224-11.5v-20.995h11.303v20.532c0 2.474.358 4.256 1.074 5.347.717 1.074 2.043 1.611 3.98 1.611 1.937 0 3.247-.553 3.93-1.66.684-1.107 1.034-2.89 1.05-5.347v-20.483h11.402v20.898zm6.85 14.844v-35.742h12.695l10.156 18.896v-18.896h9.961V168h-10.864l-11.938-21.411V168h-10.01zm40.077 0v-35.742h11.45V168h-11.45zm25.503 0v-27.05h-9.01v-8.692h29.444v8.691h-9.033V168h-11.401zm33.876 0v-15.259l-11.597-20.483h12.305l5.444 11.181 5.518-11.181h10.84l-11.109 20.434V168h-11.401zM.65 243l16.658-52.898h21.68L55.571 243h-17.74l-2.458-8.816h-16.73L16.297 243H.65zm26.45-39.385l-5.276 19.187h10.443L27.1 203.615zM69.23 243l-12.285-52.898h16.947l6.07 31.58 6.395-31.58h14.562l7.19 31.941 6.432-31.941h15.537L117.793 243h-16.946l-7.408-31.58L85.96 243H69.23zm62.293 0l16.658-52.898h21.68L186.444 243h-17.74l-2.458-8.816h-16.73L147.17 243h-15.646zm26.45-39.385l-5.276 19.187h10.443l-5.167-19.187zM191.9 243v-52.898h21.608c7.299 0 12.815 1.445 16.549 4.335 3.733 2.891 5.588 7.167 5.564 12.828v.289c0 6.504-2.975 11.117-8.925 13.839L238.766 243h-17.633l-9.828-18.139h-2.674V243H191.9zm16.73-28.942h3.938c4.577 0 6.866-1.927 6.866-5.782v-.289c0-1.903-.554-3.264-1.663-4.083-1.108-.819-2.818-1.228-5.13-1.228h-4.011v11.382zm52.61 16.079h2.818c4.095 0 7.07-1.06 8.924-3.18 1.855-2.12 2.77-5.504 2.746-10.153v-.578c0-4.794-.915-8.203-2.746-10.226-1.854-2.023-4.853-3.035-8.997-3.035h-2.746v27.172zM244.437 243v-52.898h20.199c9.418 0 16.536 2.192 21.354 6.576 4.818 4.384 7.227 10.791 7.227 19.222v.542c0 8.456-2.445 14.995-7.335 19.62-4.89 4.626-11.972 6.938-21.246 6.938h-20.199zm75.482.976c-15.152 0-22.92-5.974-23.306-17.922h15.899c.337 4.047 2.806 6.07 7.407 6.07 1.927 0 3.384-.397 4.372-1.192.988-.795 1.481-1.867 1.481-3.216 0-1.35-.53-2.337-1.59-2.963-1.06-.626-3.047-1.132-5.961-1.518-7.588-.843-12.888-2.517-15.899-5.022-3.01-2.505-4.516-6.384-4.516-11.635 0-5.251 1.903-9.43 5.709-12.538 3.83-3.131 8.973-4.697 15.428-4.697 13.321 0 20.427 5.624 21.319 16.874h-15.537c-.386-3.397-2.313-5.095-5.782-5.095-1.662 0-2.95.35-3.866 1.048-.915.723-1.373 1.686-1.373 2.89 0 1.205.518 2.144 1.554 2.819 1.036.674 2.987 1.18 5.853 1.517 7.155.747 12.394 2.3 15.718 4.662 3.324 2.384 4.986 6.25 4.986 11.598 0 5.348-1.927 9.732-5.78 13.153-3.855 3.42-9.227 5.142-16.116 5.167z"/>
    </g>
</svg>
